UW - Big Data and Data Mining / Data analysis practice
…
The most frequently mentioned word was “information”, along with a set of other words that we can say refer to the handling of data mediated by technology, with various products, such as the analysis of information and the generation of knowledge, or the manipulation and control (the only words that have a negative evaluation).

To know the most/least valued words, we must generate other cuts:

word_associations_frequency %>%  
  slice_max(order_by = mean_score, n=10) # 10 most likeable words

# A tibble: 176 × 4
   palabra                             freq mean_score mean_order_of_evocation
   <chr>                              <int>      <dbl>                   <dbl>
 1 abundante                              1          5                       2
 2 accionar                               1          5                       3
 3 actualizaciones                        1          5                       3
 4 algo superior                          1          5                       3
 5 almacenamiento de datos                2          5                       2
 6 amigos                                 1          5                       1
 7 amor                                   1          5                       4
 8 amplitud de usos                       1          5                       5
 9 análisis datos                         1          5                       2
10 análisis de grandes masas de datos     1          5                       1
# … with 166 more rows

word_associations_frequency %>%  
  slice_min(order_by = mean_score, n=10) # 10 least likeable words

# A tibble: 108 × 4
   palabra                freq mean_score mean_order_of_evocation
   <chr>                 <int>      <dbl>                   <dbl>
 1 1984                      1         -5                       2
 2 acción                    1         -5                       4
 3 acoso mediático           1         -5                       2
 4 altgorismo                1         -5                       4
 5 atraso                    1         -5                       4
 6 ausencia de intimidad     1         -5                       4
 7 avismo                    1         -5                       4
 8 buenas noticias           1         -5                       3
 9 camdbridge analitycs      1         -5                       2
10 campaña politica          1         -5                       2
# … with 98 more rows
…
